<?xml version="1.0" encoding="utf-8"?>
<!-- Generator: Adobe Illustrator 17.1.0, SVG Export Plug-In . SVG Version: 6.00 Build 0)  -->
<!DOCTYPE svg PUBLIC "-//W3C//DTD SVG 1.1//EN" "http://www.w3.org/Graphics/SVG/1.1/DTD/svg11.dtd">
<svg version="1.1" xmlns="http://www.w3.org/2000/svg" xmlns:xlink="http://www.w3.org/1999/xlink" x="0px" y="0px"
	 viewBox="0 0 76 76" enable-background="new 0 0 76 76" xml:space="preserve">
<g id="Ebene_2">
	<rect fill="#B8A566" width="76" height="76"/>
</g>
<g id="Ebene_3">
	<g>
		<polyline fill="none" stroke="#FFFFFF" stroke-width="1.5" stroke-miterlimit="10" points="26.2,33.2 38.2,20.7 49.8,33.2 		"/>
		<line fill="none" stroke="#FFFFFF" stroke-width="1.5" stroke-miterlimit="10" x1="38.2" y1="20.7" x2="38.2" y2="53.5"/>
	</g>
	<path fill="none" stroke="#010202" stroke-miterlimit="10" d="M-20.8,4.4"/>
</g>
<g id="Ebene_1" display="none">
	<image display="inline" overflow="visible" width="61" height="71" xlink:href="arrow.jpg"  transform="matrix(1 0 0 1 7.5 2.5)">
	</image>
</g>
</svg>
