<?xml version="1.0" encoding="utf-8"?>
<!-- Generator: Adobe Illustrator 18.1.1, SVG Export Plug-In . SVG Version: 6.00 Build 0)  -->
<!DOCTYPE svg PUBLIC "-//W3C//DTD SVG 1.1//EN" "http://www.w3.org/Graphics/SVG/1.1/DTD/svg11.dtd">
<svg version="1.1" id="Ebene_1" xmlns="http://www.w3.org/2000/svg" xmlns:xlink="http://www.w3.org/1999/xlink" x="0px" y="0px"
	 viewBox="0 0 12 16" enable-background="new 0 0 12 16" xml:space="preserve">
<g>
	<defs>
		<rect id="SVGID_1_" y="3" width="12" height="10"/>
	</defs>
	<clipPath id="SVGID_2_">
		<use xlink:href="#SVGID_1_"  overflow="visible"/>
	</clipPath>
	<path clip-path="url(#SVGID_2_)" fill="#FFFFFF" d="M10.1,9.1c-0.5,0-0.8-0.4-0.8-0.9c0-0.5,0.4-0.9,0.8-0.9c0.5,0,0.8,0.4,0.8,0.9
		C10.9,8.7,10.6,9.1,10.1,9.1 M6,6.4L6,6.4H2.1l0.7-2c0.1-0.3,0.2-0.5,0.6-0.5H6h0h2.6c0.3,0,0.5,0.2,0.6,0.5l0.7,2H6z M1.9,9.1
		c-0.5,0-0.8-0.4-0.8-0.9c0-0.5,0.4-0.9,0.8-0.9c0.5,0,0.8,0.4,0.8,0.9C2.7,8.7,2.3,9.1,1.9,9.1 M10.9,6.4l-1-2.5
		C9.7,3.4,9.3,3,8.6,3H7.2H4.8H3.4C2.7,3,2.3,3.4,2.1,3.9l-1,2.5C0.7,6.5,0,6.9,0,7.8V11h1v1c0,1.3,1.8,1.3,1.8,0v-1H6h3.2v1
		c0,1.3,1.8,1.3,1.8,0v-1h1V7.8C12,6.9,11.3,6.5,10.9,6.4"/>
</g>
</svg>
